B-
B+
B-
B
B
A
D+
B+
D-
F
C
B+
D+
B+
C-
B+
D-
B+
B+
B-
C+
B+
D-
D-
A-
A
A
D+
D+
A
A
C
B+
B-
C-
B+
B-
D+
C+
B+
B
C-
B-
B+
B-
C-
F
D+
A
C+
D
A
C+
C
B-
B+
A
C+
D+
C-
B+
D+
D+
B+
A
C+
B+
B-
B+
F
D+
B+
B-
B+
B
B+
F
D+
B+
D+
B
B
C+
B+
A
B+
D+
C
D-
D+
C+
D+
D+
B+
B-
C+
D-
A
D+
C+
B-
D+
D+
B-
C+
D-
D+
A
B+
C
B-
B+
B+
B+
D+
B+
C-
D+
B-
D-
B+
B-
B-
D+
B+
C-
B-
C-
B-
C
C-
C+
D+
D+
B+
B+
A
B+
C-
B
B+
B+
D+
A
C
B-
C+
B+
B+
B+
B-
F
D-
A-
F
D+
D-
F
B-
C+
B+
A-
B-
A-
F
D+
C-
D+
F
C+
D-
A
F
C-
B+
B+
B
C
D-
B-
C-
C
C
B+
A
A
C+
B+
B+
B-
C
C-
F
B-
C+
D+
D+
B+
C-
A
B+
C
D+
B-
A-
F
B+
C
F
B+
C-
C
B+
F
B+
B-
B-
B+
D+
D+
B-
B+
B+
C+
F
D+
B-
C+
F
B+
C
D+
A
D+
B
D+
D+
C+
B+
B+
F
A
B+
D+
D+
D+
B
B+
A
B+
